%YAML 1.1
%TAG !u! tag:unity3d.com,2011:
--- !u!1001 &2316605213941241821
PrefabInstance:
  m_ObjectHideFlags: 0
  serializedVersion: 2
  m_Modification:
    m_TransformParent: {fileID: 0}
    m_Modifications:
    - target: {fileID: 1759382462098787918, guid: f9155fb21044b8142b088e2cac2b0b18, type: 3}
      propertyPath: m_Mesh
      value: 
      objectReference: {fileID: 1718336945187600017, guid: e707d6ece7896aa4ea8a9387cea4cc60, type: 3}
    - target: {fileID: 3045425873870232338, guid: f9155fb21044b8142b088e2cac2b0b18, type: 3}
      propertyPath: m_RootOrder
      value: 0
      objectReference: {fileID: 0}
    - target: {fileID: 3045425873870232338, guid: f9155fb21044b8142b088e2cac2b0b18, type: 3}
      propertyPath: m_LocalEulerAnglesHint.x
      value: 0
      objectReference: {fileID: 0}
    - target: {fileID: 3045425873870232338, guid: f9155fb21044b8142b088e2cac2b0b18, type: 3}
      propertyPath: m_LocalEulerAnglesHint.y
      value: 0
      objectReference: {fileID: 0}
    - target: {fileID: 3045425873870232338, guid: f9155fb21044b8142b088e2cac2b0b18, type: 3}
      propertyPath: m_LocalEulerAnglesHint.z
      value: 0
      objectReference: {fileID: 0}
    - target: {fileID: 7372591921072894020, guid: f9155fb21044b8142b088e2cac2b0b18, type: 3}
      propertyPath: m_Mesh
      value: 
      objectReference: {fileID: 1718336945187600017, guid: e707d6ece7896aa4ea8a9387cea4cc60, type: 3}
    - target: {fileID: 7615854794929118284, guid: f9155fb21044b8142b088e2cac2b0b18, type: 3}
      propertyPath: m_Name
      value: PurpleCar2
      objectReference: {fileID: 0}
    m_RemovedComponents: []
  m_SourcePrefab: {fileID: 100100000, guid: f9155fb21044b8142b088e2cac2b0b18, type: 3}
